…
``` r
n_obs_total; n_zip; n_hood
```

    ## [1] 17516

    ## [1] 149

    ## [1] 42

``` r
zips_only_df
```

    ## # A tibble: 171 × 3
    ##    zip   borough   neighborhood       
    ##    <chr> <chr>     <chr>              
    ##  1 10008 Manhattan <NA>               
    ##  2 10020 Manhattan Chelsea and Clinton
    ##  3 10041 Manhattan <NA>               
    ##  4 10043 Manhattan <NA>               
    ##  5 10045 Manhattan <NA>               
    ##  6 10047 Manhattan <NA>               
    ##  7 10048 Manhattan <NA>               
    ##  8 10055 Manhattan <NA>               
    ##  9 10072 Manhattan <NA>               
    ## 10 10080 Manhattan <NA>               
    ## # ℹ 161 more rows
…
